final.utf8
…
## See spec(...) for full column specifications.

data

## # A tibble: 1,085 x 27
##       id case_in_country `reporting date` X4    summary location country gender
##    <dbl>           <dbl> <chr>            <lgl> <chr>   <chr>    <chr>   <chr> 
##  1     1              NA 1/20/2020        NA    First  Shenzhe China   male  
##  2     2              NA 1/20/2020        NA    First  Shanghai China   female
##  3     3              NA 1/21/2020        NA    First  Zhejiang China   male  
##  4     4              NA 1/21/2020        NA    new co Tianjin  China   female
##  5     5              NA 1/21/2020        NA    new co Tianjin  China   male  
##  6     6              NA 1/21/2020        NA    First  Chongqi China   female
##  7     7              NA 1/21/2020        NA    First  Sichuan  China   male  
##  8     8              NA 1/21/2020        NA    new co Beijing  China   male  
##  9     9              NA 1/21/2020        NA    new co Beijing  China   male  
## 10    10              NA 1/21/2020        NA    new co Beijing  China   male  
## #  with 1,075 more rows, and 19 more variables: age <dbl>,
## #   symptom_onset <chr>, If_onset_approximated <dbl>, hosp_visit_date <chr>,
## #   exposure_start <chr>, exposure_end <chr>, `visiting Wuhan` <dbl>, `from
## #   Wuhan` <dbl>, death <chr>, recovered <chr>, symptom <chr>, source <chr>,
## #   link <chr>, X22 <lgl>, X23 <lgl>, X24 <lgl>, X25 <lgl>, X26 <lgl>,
## #   X27 <lgl>

Next, we select the columns that we are interested in. For our purposes, we only need time, latitude, longitude, depth, mag, magType, and place.

simple_data <- data %>%
  select("reporting date", "country", "gender", "age")
simple_data

## # A tibble: 1,085 x 4
##    `reporting date` country gender   age
##    <chr>            <chr>   <chr>  <dbl>
##  1 1/20/2020        China   male      66
##  2 1/20/2020        China   female    56
##  3 1/21/2020        China   male      46
##  4 1/21/2020        China   female    60
##  5 1/21/2020        China   male      58
##  6 1/21/2020        China   female    44
##  7 1/21/2020        China   male      34
##  8 1/21/2020        China   male      37
##  9 1/21/2020        China   male      39
## 10 1/21/2020        China   male      56
## #  with 1,075 more rows

library(lubridate)
simple_data <- simple_data %>%
  mutate(date=mdy(simple_data$`reporting date`))%>%
  select(-"reporting date")
simple_data

## # A tibble: 1,085 x 4
##    country gender   age date      
##    <chr>   <chr>  <dbl> <date>    
##  1 China   male      66 2020-01-20
##  2 China   female    56 2020-01-20
##  3 China   male      46 2020-01-21
##  4 China   female    60 2020-01-21
##  5 China   male      58 2020-01-21
##  6 China   female    44 2020-01-21
##  7 China   male      34 2020-01-21
##  8 China   male      37 2020-01-21
##  9 China   male      39 2020-01-21
## 10 China   male      56 2020-01-21
## #  with 1,075 more rows
…
Given the above results, the p-value is 0.007 so the relationship between date and the global COVID-19 cases is statistically signifcant.

This method of predicting global coronavirus cases is useful, but what if we want to make more specific predictions? For instance, can we predict the number of new COVID-19 cases at a spcific time and location? Our linear regression model can be extended for to make predictions using more than one attribute.

location_case_data <- simple_data %>%
  group_by(country, date) %>%
  summarize(new_cases=n())

ry <- lm(new_cases~date+country, data=location_case_data)
broom::tidy(ry)

## # A tibble: 39 x 5
##    term              estimate std.error statistic    p.value
##    <chr>                <dbl>     <dbl>     <dbl>      <dbl>
##  1 (Intercept)      -2335.     579.       -4.03   0.0000741 
##  2 date                 0.128    0.0316    4.03   0.0000736 
##  3 countryAlgeria      -0.255    7.56     -0.0337 0.973     
##  4 countryAustralia     3.70     5.68      0.651  0.516     
##  5 countryAustria       0.872    7.56      0.115  0.908     
##  6 countryBahrain       7.44     6.55      1.14   0.257     
##  7 countryBelgium       2.55     7.59      0.336  0.737     
##  8 countryCambodia      3.57     7.61      0.469  0.639     
##  9 countryCanada        2.16     5.63      0.385  0.701     
## 10 countryChina        27.6      5.76      4.80   0.00000274
## #  with 29 more rows
…
For this model, the p-values for both date and age are < 0.05 so they both are statistically significant attributes.

Ideally, for the most accurate predictions, we would create a linear regression model that takes all of these attributes into account.

age_loc_case_data <- simple_data %>%
  group_by(country, date, age) %>%
  summarize(new_cases=n())

ry <- lm(new_cases~date+country+age, data=age_loc_case_data)
broom::tidy(ry)

## # A tibble: 30 x 5
##    term               estimate std.error statistic p.value
##    <chr>                 <dbl>     <dbl>     <dbl>   <dbl>
##  1 (Intercept)      -151.       56.4       -2.67   0.00769
##  2 date                0.00828   0.00308    2.69   0.00733
##  3 countryAustralia    0.264     0.697      0.379  0.705  
##  4 countryAustria      1.02      0.947      1.08   0.280  
##  5 countryCambodia     0.162     0.951      0.170  0.865  
##  6 countryCanada       0.184     0.700      0.262  0.793  
##  7 countryChina        0.494     0.679      0.727  0.467  
##  8 countryFinland      0.224     0.950      0.236  0.814  
##  9 countryFrance       0.0785    0.689      0.114  0.909  
## 10 countryGermany      0.0356    0.693      0.0514 0.959  
## #  with 20 more rows
…
